{
    "version": "14.0.4",
    "vulnerabilities": [
      {
        "id": "7cede87aca30ac0e4db1ebe081f5125b410d998b0557c5cd345065ace22e2318",
        "category": "sast",
        "message": "If format strings can be influenced by an attacker, they can be exploited (CWE-134).",
        "cve": "flaw.c:650a942731fb4f2f12acb38d330b46c4a60a760185605a97da290408e169f4fe:CWE-134",
        "severity": "High",
        "solution": "Use a constant for the format specification.",
        "scanner": {
          "id": "flawfinder",
          "name": "Flawfinder"
        },
        "location": {
          "file": "flaw.c",
          "start_line": 7
        },
        "identifiers": [
          {
            "type": "flawfinder_func_name",
            "name": "Flawfinder - printf",
            "value": "printf"
          },
          {
            "type": "cwe",
            "name": "CWE-134",
            "value": "134",
            "url": "https://cwe.mitre.org/data/definitions/134.html"
          }
        ]
      }
    ],
    "scan": {
      "scanner": {
        "id": "flawfinder",
        "name": "Flawfinder",
        "url": "https://www.dwheeler.com/flawfinder",
        "vendor": {
          "name": "GitLab"
        },
        "version": "2.0.19"
      },
      "type": "sast",
      "start_time": "2022-02-15T12:51:56",
      "end_time": "2022-02-15T12:51:56",
      "status": "success"
    }
  }