{
    "version": "14.0.4",
    "vulnerabilities": [
      {
        "id": "c9262b81327c31467acab5031c2a031c43329c15a4aa31c5221c0643b5c6a8c9",
        "category": "sast",
        "message": "Incorrect Regular Expression",
        "description": "RegExp() called with a variable, this might allow an attacker to DOS your application with a long-running regular expression.\n",
        "cve": "",
        "severity": "Critical",
        "scanner": {
          "id": "semgrep",
          "name": "Semgrep"
        },
        "location": {
          "file": "coverage/lcov-report/prettify.js",
          "start_line": 2
        },
        "identifiers": [
          {
            "type": "semgrep_id",
            "name": "eslint.detect-non-literal-regexp",
            "value": "eslint.detect-non-literal-regexp",
            "url": "https://semgrep.dev/r/gitlab.eslint.detect-non-literal-regexp"
          },
          {
            "type": "cwe",
            "name": "CWE-185",
            "value": "185",
            "url": "https://cwe.mitre.org/data/definitions/185.html"
          },
          {
            "type": "eslint_rule_id",
            "name": "ESLint rule ID security/detect-non-literal-regexp",
            "value": "security/detect-non-literal-regexp"
          }
        ]
      }
    ],
    "scan": {
      "scanner": {
        "id": "semgrep",
        "name": "Semgrep",
        "url": "https://github.com/returntocorp/semgrep",
        "vendor": {
          "name": "GitLab"
        },
        "version": "0.76.2"
      },
      "type": "sast",
      "start_time": "2022-02-14T13:51:45",
      "end_time": "2022-02-14T13:51:56",
      "status": "success"
    }
  }